Data,Ultimo
31.12.2010,1.7212
30.12.2010,1.731
29.12.2010,1.7325
28.12.2010,1.7465
27.12.2010,1.7262
24.12.2010,1.736
23.12.2010,1.748
22.12.2010,1.757
21.12.2010,1.7585
20.12.2010,1.7717
17.12.2010,1.76
16.12.2010,1.7708
15.12.2010,1.7895
14.12.2010,1.8035
13.12.2010,1.8162
10.12.2010,1.821
09.12.2010,1.836
08.12.2010,1.853
07.12.2010,1.87
06.12.2010,1.885
03.12.2010,1.8575
02.12.2010,1.8297
01.12.2010,1.8505
30.11.2010,1.8739
29.11.2010,1.882
26.11.2010,1.8762
25.11.2010,1.8475
24.11.2010,1.8565
23.11.2010,1.8535
22.11.2010,1.8509
19.11.2010,1.8545
18.11.2010,1.8379
17.11.2010,1.8326
16.11.2010,1.8275
15.11.2010,1.8045
12.11.2010,1.8115
11.11.2010,1.8255
10.11.2010,1.825
09.11.2010,1.8235
08.11.2010,1.8072
05.11.2010,1.7957
04.11.2010,1.7919
03.11.2010,1.79
02.11.2010,1.7885
01.11.2010,1.7784
29.10.2010,1.7873
28.10.2010,1.7752
27.10.2010,1.7685
26.10.2010,1.7641
25.10.2010,1.763
22.10.2010,1.7635
21.10.2010,1.7673
20.10.2010,1.7674
19.10.2010,1.791
18.10.2010,1.8009
15.10.2010,1.7869
14.10.2010,1.7767
13.10.2010,1.8002
12.10.2010,1.8197
11.10.2010,1.8181
08.10.2010,1.7949
07.10.2010,1.7891
06.10.2010,1.7837
05.10.2010,1.7647
04.10.2010,1.765
01.10.2010,1.7611
30.09.2010,1.7544
29.09.2010,1.781
28.09.2010,1.7795
27.09.2010,1.7652
24.09.2010,1.7537
23.09.2010,1.7495
22.09.2010,1.7449
21.09.2010,1.7487
20.09.2010,1.7575
17.09.2010,1.755
16.09.2010,1.7523
15.09.2010,1.7523
14.09.2010,1.7643
13.09.2010,1.7567
10.09.2010,1.7462
09.09.2010,1.7711
08.09.2010,1.751
07.09.2010,1.729
06.09.2010,1.7375
03.09.2010,1.7272
02.09.2010,1.7635
01.09.2010,1.7933
31.08.2010,1.8547
30.08.2010,1.837
27.08.2010,1.7715
26.08.2010,1.7892
25.08.2010,1.7723
24.08.2010,1.7736
23.08.2010,1.7993
20.08.2010,1.8003
19.08.2010,1.8206
18.08.2010,1.8272
17.08.2010,1.8819
16.08.2010,1.853
13.08.2010,1.8695
12.08.2010,1.8438
11.08.2010,1.8722
10.08.2010,1.8143
09.08.2010,1.8173
06.08.2010,1.8201
05.08.2010,1.848
04.08.2010,1.818
03.08.2010,1.8196
02.08.2010,1.8647
30.07.2010,1.8795
29.07.2010,1.8538
28.07.2010,1.8502
27.07.2010,1.8025
26.07.2010,1.8092
23.07.2010,1.8113
22.07.2010,1.7847
21.07.2010,1.7853
20.07.2010,1.7808
19.07.2010,1.7713
16.07.2010,1.7712
15.07.2010,1.7881
14.07.2010,1.7873
13.07.2010,1.7822
12.07.2010,1.7785
09.07.2010,1.7814
08.07.2010,1.8119
07.07.2010,1.8039
06.07.2010,1.7901
05.07.2010,1.771
02.07.2010,1.7751
01.07.2010,1.7792
30.06.2010,1.7658
29.06.2010,1.7639
28.06.2010,1.7585
25.06.2010,1.7607
24.06.2010,1.754
23.06.2010,1.7631
22.06.2010,1.7631
21.06.2010,1.783
18.06.2010,1.7924
17.06.2010,1.7738
16.06.2010,1.7807
15.06.2010,1.7578
14.06.2010,1.7732
11.06.2010,1.7622
10.06.2010,1.7687
09.06.2010,1.7658
08.06.2010,1.7599
07.06.2010,1.754
04.06.2010,1.7511
03.06.2010,1.7557
02.06.2010,1.7517
01.06.2010,1.7525
31.05.2010,1.76
28.05.2010,1.748
27.05.2010,1.7527
26.05.2010,1.774
25.05.2010,1.7687
24.05.2010,1.7723
21.05.2010,1.757
20.05.2010,1.7549
19.05.2010,1.7515
18.05.2010,1.7569
17.05.2010,1.7562
14.05.2010,1.77
13.05.2010,1.7713
12.05.2010,1.7635
11.05.2010,1.7616
10.05.2010,1.7493
07.05.2010,1.759
06.05.2010,1.755
05.05.2010,1.745
04.05.2010,1.7256
03.05.2010,1.7325
30.04.2010,1.7269
29.04.2010,1.734
28.04.2010,1.7256
27.04.2010,1.7201
26.04.2010,1.7218
23.04.2010,1.7098
22.04.2010,1.71
21.04.2010,1.7237
20.04.2010,1.7123
19.04.2010,1.7217
16.04.2010,1.7328
15.04.2010,1.7116
14.04.2010,1.7187
13.04.2010,1.7228
12.04.2010,1.7088
09.04.2010,1.7099
08.04.2010,1.708
07.04.2010,1.7005
06.04.2010,1.6876
05.04.2010,1.6897
02.04.2010,1.6977
01.04.2010,1.6636
31.03.2010,1.6782
30.03.2010,1.6812
29.03.2010,1.6656
26.03.2010,1.6706
25.03.2010,1.6707
24.03.2010,1.6522
23.03.2010,1.6597
22.03.2010,1.6656
19.03.2010,1.6725
18.03.2010,1.6824
17.03.2010,1.6762
16.03.2010,1.6969
15.03.2010,1.7059
12.03.2010,1.6958
11.03.2010,1.7033
10.03.2010,1.7203
09.03.2010,1.7045
08.03.2010,1.7012
05.03.2010,1.7038
04.03.2010,1.7039
03.03.2010,1.6899
02.03.2010,1.67
01.03.2010,1.6785
26.02.2010,1.7003
25.02.2010,1.7007
24.02.2010,1.7076
23.02.2010,1.7158
22.02.2010,1.7219
19.02.2010,1.7218
18.02.2010,1.7403
17.02.2010,1.7264
16.02.2010,1.7115
15.02.2010,1.7154
12.02.2010,1.7213
11.02.2010,1.7357
10.02.2010,1.721
09.02.2010,1.7211
08.02.2010,1.7269
05.02.2010,1.7183
04.02.2010,1.715
03.02.2010,1.7052
02.02.2010,1.696
01.02.2010,1.6875
29.01.2010,1.6749
28.01.2010,1.682
27.01.2010,1.6898
26.01.2010,1.7094
25.01.2010,1.7066
22.01.2010,1.6935
21.01.2010,1.6971
20.01.2010,1.7096
19.01.2010,1.7031
18.01.2010,1.7138
15.01.2010,1.7062
14.01.2010,1.6952
13.01.2010,1.6999
12.01.2010,1.6903
11.01.2010,1.6909
08.01.2010,1.6856
07.01.2010,1.6912
06.01.2010,1.677
05.01.2010,1.66
04.01.2010,1.6595
30.12.2011,1.647
29.12.2011,1.661
28.12.2011,1.6737
27.12.2011,1.6856
26.12.2011,1.6832
23.12.2011,1.6888
22.12.2011,1.6834
21.12.2011,1.6731
20.12.2011,1.6726
19.12.2011,1.6856
16.12.2011,1.6801
15.12.2011,1.6742
14.12.2011,1.6705
13.12.2011,1.6738
12.12.2011,1.6764
09.12.2011,1.6713
08.12.2011,1.6717
07.12.2011,1.6678
06.12.2011,1.6762
05.12.2011,1.6823
02.12.2011,1.6675
01.12.2011,1.6648
30.11.2011,1.6681
29.11.2011,1.6683
28.11.2011,1.6735
25.11.2011,1.6789
24.11.2011,1.665
23.11.2011,1.6596
22.11.2011,1.6686
21.11.2011,1.6656
18.11.2011,1.667
17.11.2011,1.669
16.11.2011,1.6705
15.11.2011,1.6615
14.11.2011,1.6628
11.11.2011,1.6684
10.11.2011,1.6721
09.11.2011,1.6745
08.11.2011,1.664
07.11.2011,1.6632
04.11.2011,1.6638
03.11.2011,1.6633
02.11.2011,1.6575
01.11.2011,1.6489
31.10.2011,1.6555
28.10.2011,1.6526
27.10.2011,1.654
26.10.2011,1.6538
25.10.2011,1.6623
24.10.2011,1.665
21.10.2011,1.6593
20.10.2011,1.6655
19.10.2011,1.6757
18.10.2011,1.6782
17.10.2011,1.6655
14.10.2011,1.6669
13.10.2011,1.6595
12.10.2011,1.6611
11.10.2011,1.6593
10.10.2011,1.6615
07.10.2011,1.6629
06.10.2011,1.646
05.10.2011,1.6284
04.10.2011,1.632
03.10.2011,1.6275
30.09.2011,1.6072
29.09.2011,1.6082
28.09.2011,1.6149
27.09.2011,1.586
26.09.2011,1.5689
23.09.2011,1.5829
22.09.2011,1.596
21.09.2011,1.5862
20.09.2011,1.5778
19.09.2011,1.5758
16.09.2011,1.5882
15.09.2011,1.5755
14.09.2011,1.5664
13.09.2011,1.564
12.09.2011,1.564
09.09.2011,1.5685
08.09.2011,1.5619
07.09.2011,1.5669
06.09.2011,1.5817
05.09.2011,1.5775
02.09.2011,1.5888
01.09.2011,1.5883
31.08.2011,1.6158
30.08.2011,1.6215
29.08.2011,1.6153
26.08.2011,1.6134
25.08.2011,1.6037
24.08.2011,1.6209
23.08.2011,1.6196
22.08.2011,1.6361
19.08.2011,1.6346
18.08.2011,1.6159
17.08.2011,1.6093
16.08.2011,1.6165
15.08.2011,1.6225
12.08.2011,1.6335
11.08.2011,1.624
10.08.2011,1.6289
09.08.2011,1.6158
08.08.2011,1.5945
05.08.2011,1.5885
04.08.2011,1.58
03.08.2011,1.5933
02.08.2011,1.5754
01.08.2011,1.576
29.07.2011,1.5841
28.07.2011,1.5808
27.07.2011,1.5812
26.07.2011,1.5829
25.07.2011,1.5963
22.07.2011,1.5832
21.07.2011,1.5828
20.07.2011,1.6002
19.07.2011,1.6024
18.07.2011,1.598
15.07.2011,1.5962
14.07.2011,1.5865
13.07.2011,1.5914
12.07.2011,1.5913
11.07.2011,1.6044
08.07.2011,1.594
07.07.2011,1.5762
06.07.2011,1.5674
05.07.2011,1.5622
04.07.2011,1.5573
01.07.2011,1.5527
30.06.2011,1.5653
29.06.2011,1.5692
28.06.2011,1.5553
27.06.2011,1.5654
24.06.2011,1.5803
23.06.2011,1.5795
22.06.2011,1.5719
21.06.2011,1.577
20.06.2011,1.5746
17.06.2011,1.5771
16.06.2011,1.5663
15.06.2011,1.5654
14.06.2011,1.5527
13.06.2011,1.5522
10.06.2011,1.5402
09.06.2011,1.5383
08.06.2011,1.5553
07.06.2011,1.567
06.06.2011,1.549
03.06.2011,1.5666
02.06.2011,1.566
01.06.2011,1.5621
31.05.2011,1.5873
30.05.2011,1.5759
27.05.2011,1.6265
26.05.2011,1.5894
25.05.2011,1.6235
24.05.2011,1.6272
23.05.2011,1.611
20.05.2011,1.5882
19.05.2011,1.5899
18.05.2011,1.5888
17.05.2011,1.5989
16.05.2011,1.5998
13.05.2011,1.6073
12.05.2011,1.5968
11.05.2011,1.6137
10.05.2011,1.6096
09.05.2011,1.6031
06.05.2011,1.5912
05.05.2011,1.5963
04.05.2011,1.5892
03.05.2011,1.62
02.05.2011,1.6415
29.04.2011,1.6454
28.04.2011,1.6553
27.04.2011,1.654
26.04.2011,1.6595
25.04.2011,1.6729
22.04.2011,1.7037
21.04.2011,1.71
20.04.2011,1.714
19.04.2011,1.705
18.04.2011,1.7327
15.04.2011,1.7997
14.04.2011,1.7856
13.04.2011,1.8838
12.04.2011,1.9033
11.04.2011,1.8333
08.04.2011,1.8225
07.04.2011,1.8042
06.04.2011,1.8372
05.04.2011,1.8425
04.04.2011,1.879
01.04.2011,1.893
31.03.2011,1.8575
30.03.2011,1.8317
29.03.2011,1.7805
28.03.2011,1.7717
25.03.2011,1.7624
24.03.2011,1.775
23.03.2011,1.775
22.03.2011,1.7508
21.03.2011,1.7319
18.03.2011,1.7736
17.03.2011,1.7524
16.03.2011,1.7731
15.03.2011,1.7812
14.03.2011,1.7748
11.03.2011,1.7508
10.03.2011,1.766
09.03.2011,1.7584
08.03.2011,1.7095
07.03.2011,1.6725
04.03.2011,1.7172
03.03.2011,1.745
02.03.2011,1.736
01.03.2011,1.7367
28.02.2011,1.7525
25.02.2011,1.7464
24.02.2011,1.7323
23.02.2011,1.7795
22.02.2011,1.7614
21.02.2011,1.7424
18.02.2011,1.7671
17.02.2011,1.7721
16.02.2011,1.7697
15.02.2011,1.7785
14.02.2011,1.786
11.02.2011,1.8081
10.02.2011,1.8184
09.02.2011,1.8672
08.02.2011,1.8981
07.02.2011,1.892
04.02.2011,1.8542
03.02.2011,1.845
02.02.2011,1.8083
01.02.2011,1.8
31.01.2011,1.7912
28.01.2011,1.7857
27.01.2011,1.7915
26.01.2011,1.7992
25.01.2011,1.822
24.01.2011,1.7979
21.01.2011,1.8439
20.01.2011,1.8647
19.01.2011,1.8798
18.01.2011,1.8602
17.01.2011,1.852
14.01.2011,1.8687
13.01.2011,1.845
12.01.2011,1.8607
11.01.2011,1.8562
10.01.2011,1.8567
07.01.2011,1.8558
06.01.2011,1.8613
05.01.2011,1.874
04.01.2011,1.8657
03.01.2011,1.8632
31.12.2012,1.8304
28.12.2012,1.8323
27.12.2012,1.8437
26.12.2012,1.8579
25.12.2012,1.8329
24.12.2012,1.7995
21.12.2012,1.803
20.12.2012,1.778
19.12.2012,1.7849
18.12.2012,1.7859
17.12.2012,1.788
14.12.2012,1.7649
13.12.2012,1.7655
12.12.2012,1.7548
11.12.2012,1.7552
10.12.2012,1.7585
07.12.2012,1.7605
06.12.2012,1.7505
05.12.2012,1.7374
04.12.2012,1.75
03.12.2012,1.7472
30.11.2012,1.7342
29.11.2012,1.7195
28.11.2012,1.7161
27.11.2012,1.7266
26.11.2012,1.726
23.11.2012,1.7214
22.11.2012,1.7163
21.11.2012,1.7208
20.11.2012,1.7165
19.11.2012,1.7211
16.11.2012,1.7289
15.11.2012,1.7165
14.11.2012,1.715
13.11.2012,1.7178
12.11.2012,1.7175
09.11.2012,1.7064
08.11.2012,1.7137
07.11.2012,1.7094
06.11.2012,1.7077
05.11.2012,1.695
02.11.2012,1.7174
01.11.2012,1.7138
31.10.2012,1.7311
30.10.2012,1.7394
29.10.2012,1.7584
26.10.2012,1.7665
25.10.2012,1.7612
24.10.2012,1.7914
23.10.2012,1.7995
22.10.2012,1.7926
19.10.2012,1.8054
18.10.2012,1.7991
17.10.2012,1.8003
16.10.2012,1.8215
15.10.2012,1.8144
12.10.2012,1.8226
11.10.2012,1.8199
10.10.2012,1.8106
09.10.2012,1.8175
08.10.2012,1.8219
05.10.2012,1.823
04.10.2012,1.8224
03.10.2012,1.8264
02.10.2012,1.8329
01.10.2012,1.8255
28.09.2012,1.8263
27.09.2012,1.8214
26.09.2012,1.8214
25.09.2012,1.8173
24.09.2012,1.8337
21.09.2012,1.8358
20.09.2012,1.8272
19.09.2012,1.8372
18.09.2012,1.8478
17.09.2012,1.8612
14.09.2012,1.879
13.09.2012,1.8806
12.09.2012,1.8724
11.09.2012,1.8802
10.09.2012,1.8821
07.09.2012,1.8788
06.09.2012,1.8855
05.09.2012,1.8861
04.09.2012,1.9088
03.09.2012,1.9047
31.08.2012,1.9243
30.08.2012,1.9085
29.08.2012,1.9275
28.08.2012,1.9194
27.08.2012,1.9397
24.08.2012,1.9715
23.08.2012,1.9529
22.08.2012,1.966
21.08.2012,1.9951
20.08.2012,2.0017
17.08.2012,2.0005
16.08.2012,2.0092
15.08.2012,2.0237
14.08.2012,2.0417
13.08.2012,2.0907
10.08.2012,2.0309
09.08.2012,2.0282
08.08.2012,1.9846
07.08.2012,1.9832
06.08.2012,1.9895
03.08.2012,2.016
02.08.2012,2.0226
01.08.2012,2.04
31.07.2012,2.056
30.07.2012,2.0248
27.07.2012,2.0328
26.07.2012,2.0328
25.07.2012,2.0213
24.07.2012,2.0652
23.07.2012,2.0684
20.07.2012,2.0719
19.07.2012,2.0569
18.07.2012,2.0484
17.07.2012,2.0641
16.07.2012,2.0279
13.07.2012,2.0256
12.07.2012,2.0631
11.07.2012,2.0675
10.07.2012,2.0613
09.07.2012,2.0724
06.07.2012,2.0764
05.07.2012,2.0765
04.07.2012,2.0095
03.07.2012,1.9849
02.07.2012,2.0156
29.06.2012,2.0279
28.06.2012,2.0194
27.06.2012,2.0281
26.06.2012,2.0323
25.06.2012,2.0333
22.06.2012,2.0345
21.06.2012,2.0373
20.06.2012,2.037
19.06.2012,2.0347
18.06.2012,2.022
15.06.2012,2.0227
14.06.2012,2.0125
13.06.2012,2.0236
12.06.2012,2.0389
11.06.2012,2.0477
08.06.2012,2.0331
07.06.2012,2.0213
06.06.2012,2.0212
05.06.2012,2.0405
04.06.2012,2.0567
01.06.2012,2.0443
31.05.2012,2.0497
30.05.2012,2.0282
29.05.2012,2.0312
28.05.2012,2.0285
25.05.2012,2.0205
24.05.2012,2.013
23.05.2012,2.0149
22.05.2012,2.0204
21.05.2012,2.0266
18.05.2012,2.0225
17.05.2012,2.0168
16.05.2012,2.0155
15.05.2012,2.0168
14.05.2012,2.0158
11.05.2012,2.0165
10.05.2012,2.0237
09.05.2012,2.0271
08.05.2012,2.0342
07.05.2012,2.044
04.05.2012,2.05
03.05.2012,2.0488
02.05.2012,2.0293
01.05.2012,2.033
30.04.2012,2.0427
27.04.2012,2.0393
26.04.2012,2.0281
25.04.2012,2.0281
24.04.2012,2.0224
23.04.2012,2.0167
20.04.2012,2.0271
19.04.2012,2.0211
18.04.2012,2.0119
17.04.2012,2.0329
16.04.2012,2.0231
13.04.2012,2.0242
12.04.2012,2.0213
11.04.2012,2.0225
10.04.2012,2.0264
09.04.2012,2.0315
06.04.2012,2.0362
05.04.2012,2.0293
04.04.2012,2.0257
03.04.2012,2.0264
02.04.2012,2.0257
30.03.2012,2.022
29.03.2012,2.0177
28.03.2012,2.031
27.03.2012,2.0297
26.03.2012,2.0362
23.03.2012,2.0426
22.03.2012,2.0423
21.03.2012,2.0445
20.03.2012,2.0363
19.03.2012,2.033
16.03.2012,2.032
15.03.2012,2.0263
14.03.2012,2.0277
13.03.2012,2.0242
12.03.2012,2.027
09.03.2012,2.0252
08.03.2012,2.0252
07.03.2012,2.027
06.03.2012,2.0335
05.03.2012,2.0307
02.03.2012,2.0309
01.03.2012,2.031
29.02.2012,2.0316
28.02.2012,2.0353
27.02.2012,2.0321
24.02.2012,2.0337
23.02.2012,2.0404
22.02.2012,2.0463
21.02.2012,2.051
20.02.2012,2.0583
17.02.2012,2.0669
16.02.2012,2.0665
15.02.2012,2.0842
14.02.2012,2.0762
13.02.2012,2.0805
10.02.2012,2.0988
09.02.2012,2.1048
08.02.2012,2.0816
07.02.2012,2.083
06.02.2012,2.0842
03.02.2012,2.0928
02.02.2012,2.0987
01.02.2012,2.1361
31.01.2012,2.1193
30.01.2012,2.1197
27.01.2012,2.0878
26.01.2012,2.0774
25.01.2012,2.0747
24.01.2012,2.0768
23.01.2012,2.0787
20.01.2012,2.072
19.01.2012,2.0852
18.01.2012,2.0856
17.01.2012,2.0995
16.01.2012,2.089
13.01.2012,2.0716
12.01.2012,2.0694
11.01.2012,2.0783
10.01.2012,2.0783
09.01.2012,2.0783
06.01.2012,2.0491
05.01.2012,2.0434
04.01.2012,2.0475
03.01.2012,2.0485
31.12.2013,2.0452
30.12.2013,2.0459
27.12.2013,2.0347
26.12.2013,2.0267
25.12.2013,2.0415
24.12.2013,2.0381
23.12.2013,2.029
20.12.2013,2.0332
19.12.2013,2.0318
18.12.2013,2.0358
17.12.2013,2.0424
16.12.2013,2.0385
13.12.2013,2.0408
12.12.2013,2.0418
11.12.2013,2.0429
10.12.2013,2.0354
09.12.2013,2.03
06.12.2013,2.03
05.12.2013,1.9958
04.12.2013,1.9859
03.12.2013,1.9914
02.12.2013,1.9908
29.11.2013,1.9878
28.11.2013,1.996
27.11.2013,1.9845
26.11.2013,1.9903
25.11.2013,1.9667
22.11.2013,1.9732
21.11.2013,1.9728
20.11.2013,1.969
19.11.2013,1.9647
18.11.2013,1.9577
15.11.2013,1.9688
14.11.2013,1.9634
13.11.2013,1.9543
12.11.2013,1.9611
11.11.2013,1.9735
08.11.2013,1.9727
07.11.2013,1.983
06.11.2013,1.9825
05.11.2013,1.9732
04.11.2013,1.9803
01.11.2013,1.9792
31.10.2013,1.9708
30.10.2013,1.9644
29.10.2013,1.9708
28.10.2013,1.9607
25.10.2013,1.9447
24.10.2013,1.9567
23.10.2013,1.9647
22.10.2013,1.9723
21.10.2013,1.9717
18.10.2013,1.9817
17.10.2013,1.982
16.10.2013,1.9855
15.10.2013,1.9903
14.10.2013,2.0082
11.10.2013,2.0091
10.10.2013,2.0123
09.10.2013,2.0173
08.10.2013,2.011
07.10.2013,2.0224
04.10.2013,2.0242
03.10.2013,2.0205
02.10.2013,2.019
01.10.2013,2.0245
30.09.2013,2.0137
27.09.2013,1.986
26.09.2013,1.9922
25.09.2013,1.9811
24.09.2013,1.9743
23.09.2013,1.9737
20.09.2013,1.9695
19.09.2013,2.0012
18.09.2013,1.987
17.09.2013,2.0012
16.09.2013,2.0187
13.09.2013,2.0108
12.09.2013,2.0213
11.09.2013,2.0248
10.09.2013,2.0109
09.09.2013,2.0017
06.09.2013,1.9988
05.09.2013,2.0082
04.09.2013,2.0017
03.09.2013,2.0015
02.09.2013,2.0097
30.08.2013,2.0091
29.08.2013,2.0096
28.08.2013,2.0079
27.08.2013,2.0055
26.08.2013,2.0137
23.08.2013,2.0201
22.08.2013,2.0074
21.08.2013,2.0204
20.08.2013,2.0229
19.08.2013,2.0268
16.08.2013,2.0353
15.08.2013,2.0398
14.08.2013,2.0413
13.08.2013,2.049
12.08.2013,2.0442
09.08.2013,2.0518
08.08.2013,2.0545
07.08.2013,2.0757
06.08.2013,2.1106
05.08.2013,2.1103
02.08.2013,2.1423
01.08.2013,2.1243
31.07.2013,2.1258
30.07.2013,2.1288
29.07.2013,2.1304
26.07.2013,2.1321
25.07.2013,2.1466
24.07.2013,2.1323
23.07.2013,2.156
22.07.2013,2.1218
19.07.2013,2.1528
18.07.2013,2.1705
17.07.2013,2.181
16.07.2013,2.225
15.07.2013,2.2586
12.07.2013,2.242
11.07.2013,2.226
10.07.2013,2.2139
09.07.2013,2.187
08.07.2013,2.1989
05.07.2013,2.2321
04.07.2013,2.2283
03.07.2013,2.2546
02.07.2013,2.2681
01.07.2013,2.248
28.06.2013,2.2525
27.06.2013,2.2642
26.06.2013,2.2571
25.06.2013,2.2643
24.06.2013,2.2538
21.06.2013,2.2673
20.06.2013,2.2193
19.06.2013,2.2531
18.06.2013,2.2257
17.06.2013,2.2271
14.06.2013,2.2467
13.06.2013,2.2328
12.06.2013,2.2134
11.06.2013,2.2513
10.06.2013,2.2428
07.06.2013,2.2568
06.06.2013,2.2687
05.06.2013,2.2832
04.06.2013,2.2771
03.06.2013,2.3045
31.05.2013,2.2876
30.05.2013,2.3058
29.05.2013,2.2991
28.05.2013,2.314
27.05.2013,2.2844
24.05.2013,2.2717
23.05.2013,2.2873
22.05.2013,2.3138
21.05.2013,2.3244
20.05.2013,2.3407
17.05.2013,2.3925
16.05.2013,2.4129
15.05.2013,2.3936
14.05.2013,2.4524
13.05.2013,2.4348
10.05.2013,2.3486
09.05.2013,2.3792
08.05.2013,2.372
07.05.2013,2.3442
06.05.2013,2.3598
03.05.2013,2.3862
02.05.2013,2.378
01.05.2013,2.3585
30.04.2013,2.3605
29.04.2013,2.3249
26.04.2013,2.3066
25.04.2013,2.2763
24.04.2013,2.2836
23.04.2013,2.2772
22.04.2013,2.2752
19.04.2013,2.2803
18.04.2013,2.2843
17.04.2013,2.256
16.04.2013,2.1865
15.04.2013,2.2026
12.04.2013,2.2102
11.04.2013,2.1986
10.04.2013,2.201
09.04.2013,2.2324
08.04.2013,2.2459
05.04.2013,2.2523
04.04.2013,2.2162
03.04.2013,2.2157
02.04.2013,2.1914
01.04.2013,2.207
29.03.2013,2.212
28.03.2013,2.2047
27.03.2013,2.2115
26.03.2013,2.2075
25.03.2013,2.1799
22.03.2013,2.174
21.03.2013,2.1816
20.03.2013,2.1777
19.03.2013,2.1806
18.03.2013,2.1525
15.03.2013,2.1689
14.03.2013,2.1735
13.03.2013,2.1725
12.03.2013,2.1881
11.03.2013,2.204
08.03.2013,2.1877
07.03.2013,2.1805
06.03.2013,2.185
05.03.2013,2.184
04.03.2013,2.2401
01.03.2013,2.2567
28.02.2013,2.2458
27.02.2013,2.2823
26.02.2013,2.2855
25.02.2013,2.3058
22.02.2013,2.3142
21.02.2013,2.3308
20.02.2013,2.3333
19.02.2013,2.3335
18.02.2013,2.3137
15.02.2013,2.319
14.02.2013,2.2633
13.02.2013,2.2713
12.02.2013,2.2717
11.02.2013,2.3062
08.02.2013,2.2788
07.02.2013,2.2837
06.02.2013,2.2967
05.02.2013,2.33
04.02.2013,2.3176
01.02.2013,2.3358
31.01.2013,2.3559
30.01.2013,2.3758
29.01.2013,2.3914
28.01.2013,2.3612
25.01.2013,2.3267
24.01.2013,2.3197
23.01.2013,2.309
22.01.2013,2.3413
21.01.2013,2.3327
18.01.2013,2.33
17.01.2013,2.3278
16.01.2013,2.3194
15.01.2013,2.3262
14.01.2013,2.3535
11.01.2013,2.3876
10.01.2013,2.3571
09.01.2013,2.3573
08.01.2013,2.3571
07.01.2013,2.3518
04.01.2013,2.3384
03.01.2013,2.3621
02.01.2013,2.3621
31.12.2014,2.3876
30.12.2014,2.3765
29.12.2014,2.3761
26.12.2014,2.3725
25.12.2014,2.3967
24.12.2014,2.3904
23.12.2014,2.3584
22.12.2014,2.3598
19.12.2014,2.3503
18.12.2014,2.3605
17.12.2014,2.3636
16.12.2014,2.3426
15.12.2014,2.3442
12.12.2014,2.3575
11.12.2014,2.3731
10.12.2014,2.3959
09.12.2014,2.3982
08.12.2014,2.4215
05.12.2014,2.4263
04.12.2014,2.4352
03.12.2014,2.4118
02.12.2014,2.4127
01.12.2014,2.4402
28.11.2014,2.4055
27.11.2014,2.3986
26.11.2014,2.3825
25.11.2014,2.3802
24.11.2014,2.409
21.11.2014,2.4005
20.11.2014,2.4255
19.11.2014,2.3938
18.11.2014,2.3891
17.11.2014,2.39
14.11.2014,2.3955
13.11.2014,2.3942
12.11.2014,2.3704
11.11.2014,2.3456
10.11.2014,2.3392
07.11.2014,2.3411
06.11.2014,2.3497
05.11.2014,2.322
04.11.2014,2.3384
03.11.2014,2.3441
31.10.2014,2.3412
30.10.2014,2.3181
29.10.2014,2.3232
28.10.2014,2.3406
27.10.2014,2.3498
24.10.2014,2.3642
23.10.2014,2.3525
22.10.2014,2.3641
21.10.2014,2.3465
20.10.2014,2.3495
17.10.2014,2.3342
16.10.2014,2.3478
15.10.2014,2.3281
14.10.2014,2.3246
13.10.2014,2.3225
10.10.2014,2.3114
09.10.2014,2.3041
08.10.2014,2.2593
07.10.2014,2.2618
06.10.2014,2.2721
03.10.2014,2.2607
02.10.2014,2.2691
01.10.2014,2.2793
30.09.2014,2.236
29.09.2014,2.2189
26.09.2014,2.2012
25.09.2014,2.1856
24.09.2014,2.2067
23.09.2014,2.2184
22.09.2014,2.214
19.09.2014,2.2329
18.09.2014,2.2436
17.09.2014,2.2376
16.09.2014,2.2372
15.09.2014,2.237
12.09.2014,2.238
11.09.2014,2.2212
10.09.2014,2.2138
09.09.2014,2.2445
08.09.2014,2.2237
05.09.2014,2.2359
04.09.2014,2.233
03.09.2014,2.2335
02.09.2014,2.22
01.09.2014,2.2431
29.08.2014,2.2292
28.08.2014,2.2166
27.08.2014,2.2153
26.08.2014,2.2128
25.08.2014,2.2145
22.08.2014,2.2151
21.08.2014,2.2025
20.08.2014,2.2203
19.08.2014,2.2146
18.08.2014,2.2058
15.08.2014,2.2165
14.08.2014,2.2075
13.08.2014,2.2153
12.08.2014,2.2235
11.08.2014,2.2239
08.08.2014,2.2378
07.08.2014,2.2325
06.08.2014,2.2252
05.08.2014,2.2408
04.08.2014,2.2769
01.08.2014,2.2805
31.07.2014,2.2781
30.07.2014,2.2617
29.07.2014,2.2475
28.07.2014,2.2277
25.07.2014,2.2225
24.07.2014,2.2335
23.07.2014,2.23
22.07.2014,2.2241
21.07.2014,2.2343
18.07.2014,2.2618
17.07.2014,2.228
16.07.2014,2.2225
15.07.2014,2.2295
14.07.2014,2.218
11.07.2014,2.2252
10.07.2014,2.2078
09.07.2014,2.1969
08.07.2014,2.194
07.07.2014,2.2143
04.07.2014,2.2018
03.07.2014,2.2252
02.07.2014,2.2103
01.07.2014,2.2132
30.06.2014,2.224
27.06.2014,2.2123
26.06.2014,2.2123
25.06.2014,2.2192
24.06.2014,2.2208
23.06.2014,2.2107
20.06.2014,2.2199
19.06.2014,2.2238
18.06.2014,2.2582
17.06.2014,2.2255
16.06.2014,2.22
13.06.2014,2.213
12.06.2014,2.2182
11.06.2014,2.2228
10.06.2014,2.229
09.06.2014,2.2222
06.06.2014,2.2305
05.06.2014,2.2454
04.06.2014,2.2639
03.06.2014,2.2574
02.06.2014,2.2584
30.05.2014,2.2818
29.05.2014,2.2738
28.05.2014,2.2957
27.05.2014,2.2812
26.05.2014,2.2755
23.05.2014,2.2767
22.05.2014,2.2803
21.05.2014,2.2666
20.05.2014,2.2598
19.05.2014,2.2576
16.05.2014,2.2467
15.05.2014,2.2623
14.05.2014,2.2687
13.05.2014,2.2778
12.05.2014,2.2883
09.05.2014,2.2618
08.05.2014,2.2471
07.05.2014,2.2415
06.05.2014,2.236
05.05.2014,2.2458
02.05.2014,2.2435
01.05.2014,2.237
30.04.2014,2.2431
29.04.2014,2.2405
28.04.2014,2.2677
25.04.2014,2.2868
24.04.2014,2.2885
23.04.2014,2.298
22.04.2014,2.3392
21.04.2014,2.3427
18.04.2014,2.3325
17.04.2014,2.3583
16.04.2014,2.3646
15.04.2014,2.3682
14.04.2014,2.3984
11.04.2014,2.4118
10.04.2014,2.3836
09.04.2014,2.4283
08.04.2014,2.42
07.04.2014,2.447
04.04.2014,2.4462
03.04.2014,2.4815
02.04.2014,2.4952
01.04.2014,2.4588
31.03.2014,2.4238
28.03.2014,2.3961
27.03.2014,2.3769
26.03.2014,2.3982
25.03.2014,2.4295
24.03.2014,2.3942
21.03.2014,2.4002
20.03.2014,2.4583
19.03.2014,2.4728
18.03.2014,2.4356
17.03.2014,2.4652
14.03.2014,2.4809
13.03.2014,2.4873
12.03.2014,2.4988
11.03.2014,2.4739
10.03.2014,2.5226
07.03.2014,2.4613
06.03.2014,2.4612
05.03.2014,2.4036
04.03.2014,2.4783
03.03.2014,2.4966
28.02.2014,2.497
27.02.2014,2.5049
26.02.2014,2.5697
25.02.2014,2.5587
24.02.2014,2.5528
21.02.2014,2.5575
20.02.2014,2.5665
19.02.2014,2.5889
18.02.2014,2.6018
17.02.2014,2.6081
14.02.2014,2.5825
13.02.2014,2.572
12.02.2014,2.5731
11.02.2014,2.5153
10.02.2014,2.5457
07.02.2014,2.5303
06.02.2014,2.5011
05.02.2014,2.5304
04.02.2014,2.5659
03.02.2014,2.56
31.01.2014,2.5682
30.01.2014,2.5525
29.01.2014,2.5915
28.01.2014,2.5895
27.01.2014,2.6004
24.01.2014,2.593
23.01.2014,2.6162
22.01.2014,2.6498
21.01.2014,2.6545
20.01.2014,2.6955
17.01.2014,2.7384
16.01.2014,2.7154
15.01.2014,2.6625
14.01.2014,2.6598
13.01.2014,2.6645
10.01.2014,2.6946
09.01.2014,2.6955
08.01.2014,2.6957
07.01.2014,2.6685
06.01.2014,2.7027
03.01.2014,2.6575
02.01.2014,2.6575
31.12.2015,2.6941
30.12.2015,2.7064
29.12.2015,2.7001
28.12.2015,2.6835
25.12.2015,2.663
24.12.2015,2.6301
23.12.2015,2.6734
22.12.2015,2.643
21.12.2015,2.6159
18.12.2015,2.6422
17.12.2015,2.621
16.12.2015,2.6517
15.12.2015,2.6138
14.12.2015,2.6005
11.12.2015,2.5745
10.12.2015,2.5797
09.12.2015,2.5835
08.12.2015,2.5724
07.12.2015,2.5764
04.12.2015,2.6035
03.12.2015,2.6824
02.12.2015,2.7271
01.12.2015,2.6945
30.11.2015,2.7418
27.11.2015,2.7451
26.11.2015,2.7825
25.11.2015,2.7698
24.11.2015,2.8343
23.11.2015,2.8693
20.11.2015,2.821
19.11.2015,2.8346
18.11.2015,2.8346
17.11.2015,2.8296
16.11.2015,2.8374
13.11.2015,2.8665
12.11.2015,2.868
11.11.2015,2.8788
10.11.2015,2.833
09.11.2015,2.875
06.11.2015,2.9085
05.11.2015,2.839
04.11.2015,2.8965
03.11.2015,2.9311
02.11.2015,2.9766
30.10.2015,3.0035
29.10.2015,3.0617
28.10.2015,3.1223
27.10.2015,3.1022
26.10.2015,3.1257
23.10.2015,3.1661
22.10.2015,3.2492
21.10.2015,3.2488
20.10.2015,3.2395
19.10.2015,3.2097
16.10.2015,3.2921
15.10.2015,3.2293
14.10.2015,3.1322
13.10.2015,3.1398
12.10.2015,3.2012
09.10.2015,3.1828
08.10.2015,3.2496
07.10.2015,3.2306
06.10.2015,3.1958
05.10.2015,3.1655
02.10.2015,3.1205
01.10.2015,3.121
30.09.2015,3.1263
29.09.2015,3.1288
28.09.2015,3.0495
25.09.2015,3.0591
24.09.2015,3.0756
23.09.2015,3.1212
22.09.2015,3.0634
21.09.2015,3.0294
18.09.2015,3.0221
17.09.2015,3.0409
16.09.2015,3.033
15.09.2015,3.034
14.09.2015,3.0113
11.09.2015,2.9707
10.09.2015,2.9517
09.09.2015,2.9173
08.09.2015,2.9364
07.09.2015,2.9612
04.09.2015,3.0145
03.09.2015,3.0146
02.09.2015,3.0864
01.09.2015,3.0536
31.08.2015,3.0333
28.08.2015,3.026
27.08.2015,2.9733
26.08.2015,3.0614
25.08.2015,3.0206
24.08.2015,3.0403
21.08.2015,2.9935
20.08.2015,2.9972
19.08.2015,3.0076
18.08.2015,3.0394
17.08.2015,3.0027
14.08.2015,3.0379
13.08.2015,3.0949
12.08.2015,3.0968
11.08.2015,3.1536
10.08.2015,3.1409
07.08.2015,3.1624
06.08.2015,3.1798
05.08.2015,3.1718
04.08.2015,3.1306
03.08.2015,3.1345
31.07.2015,3.1418
30.07.2015,3.1439
29.07.2015,3.1132
28.07.2015,3.0966
27.07.2015,3.1187
24.07.2015,3.0896
23.07.2015,3.1185
22.07.2015,3.13
21.07.2015,3.0885
20.07.2015,3.057
17.07.2015,3.0605
16.07.2015,3.0976
15.07.2015,3.0814
14.07.2015,3.076
13.07.2015,3.0979
10.07.2015,3.1277
09.07.2015,3.1295
08.07.2015,3.1178
07.07.2015,3.103
06.07.2015,3.1498
03.07.2015,3.0967
02.07.2015,3.1347
01.07.2015,3.1391
30.06.2015,3.1867
29.06.2015,3.2346
26.06.2015,3.2203
25.06.2015,3.1593
24.06.2015,3.1348
23.06.2015,3.1399
22.06.2015,3.1391
19.06.2015,3.1587
18.06.2015,3.1881
17.06.2015,3.1981
16.06.2015,3.1717
15.06.2015,3.2239
12.06.2015,3.286
11.06.2015,3.3556
10.06.2015,3.364
09.06.2015,3.3577
08.06.2015,3.3308
05.06.2015,3.3715
04.06.2015,3.4212
03.06.2015,3.4514
02.06.2015,3.4712
01.06.2015,3.4867
29.05.2015,3.5361
28.05.2015,3.5071
27.05.2015,3.4345
26.05.2015,3.475
25.05.2015,3.481
22.05.2015,3.5194
21.05.2015,3.4845
20.05.2015,3.4812
19.05.2015,3.4681
18.05.2015,3.4932
15.05.2015,3.457
14.05.2015,3.5007
13.05.2015,3.5534
12.05.2015,3.6175
11.05.2015,3.5963
08.05.2015,3.551
07.05.2015,3.5823
06.05.2015,3.6193
05.05.2015,3.702
04.05.2015,3.7591
01.05.2015,3.738
30.04.2015,3.8442
29.04.2015,3.8387
28.04.2015,3.82
27.04.2015,3.7783
24.04.2015,3.8498
23.04.2015,3.8705
22.04.2015,3.815
21.04.2015,3.8634
20.04.2015,3.8289
17.04.2015,3.899
16.04.2015,3.9459
15.04.2015,3.9857
14.04.2015,4.0497
13.04.2015,4.178
10.04.2015,3.9368
09.04.2015,3.9777
08.04.2015,4.1083
07.04.2015,4.0634
06.04.2015,3.9491
03.04.2015,4.01
02.04.2015,3.9331
01.04.2015,3.912
31.03.2015,3.8539
30.03.2015,3.8838
27.03.2015,3.7839
26.03.2015,3.766
25.03.2015,3.7639
24.03.2015,3.8937
23.03.2015,3.8119
20.03.2015,3.8032
19.03.2015,3.9245
18.03.2015,3.8857
17.03.2015,3.9073
16.03.2015,3.9414
13.03.2015,3.9088
12.03.2015,3.8807
11.03.2015,3.906
10.03.2015,3.8883
09.03.2015,3.9094
06.03.2015,3.8509
05.03.2015,3.8564
04.03.2015,3.8507
03.03.2015,3.7712
02.03.2015,3.8003
27.02.2015,3.7813
26.02.2015,3.7713
25.02.2015,3.799
24.02.2015,3.751
23.02.2015,3.7639
20.02.2015,3.771
19.02.2015,3.8456
18.02.2015,3.8194
17.02.2015,3.8105
16.02.2015,3.7668
13.02.2015,3.7181
12.02.2015,3.7052
11.02.2015,3.733
10.02.2015,3.7
09.02.2015,3.7425
06.02.2015,3.7431
05.02.2015,3.8464
04.02.2015,3.869
03.02.2015,3.8575
02.02.2015,3.8352
30.01.2015,3.7596
29.01.2015,3.7521
28.01.2015,3.7681
27.01.2015,3.7962
26.01.2015,3.7502
23.01.2015,3.8126
22.01.2015,3.873
21.01.2015,3.8779
20.01.2015,3.873
19.01.2015,3.8848
16.01.2015,3.8796
15.01.2015,3.9824
14.01.2015,4.0134
13.01.2015,3.9899
12.01.2015,3.9419
09.01.2015,3.953
08.01.2015,3.9463
07.01.2015,3.8586
06.01.2015,3.8655
05.01.2015,3.9608
02.01.2015,3.9608
30.12.2016,4.0402
29.12.2016,4.0077
28.12.2016,4.0244
27.12.2016,4.0448
26.12.2016,4.0245
23.12.2016,4.0537
22.12.2016,4.029
21.12.2016,4.0158
20.12.2016,3.9996
19.12.2016,4.0479
16.12.2016,4.0557
15.12.2016,4.0626
14.12.2016,4.0971
13.12.2016,4.1575
12.12.2016,4.0945
09.12.2016,4.0903
08.12.2016,4.0536
07.12.2016,4.1077
06.12.2016,4.0699
05.12.2016,3.9988
02.12.2016,3.9629
01.12.2016,3.9895
30.11.2016,3.8954
29.11.2016,3.8897
28.11.2016,3.9035
25.11.2016,3.8954
24.11.2016,3.8856
23.11.2016,3.9285
22.11.2016,3.9946
21.11.2016,4.0027
18.11.2016,4.006
17.11.2016,4.0723
16.11.2016,3.9851
15.11.2016,4.0284
14.11.2016,4.0214
11.11.2016,3.9473
10.11.2016,3.9569
09.11.2016,3.9591
08.11.2016,3.956
07.11.2016,3.9933
04.11.2016,4.0171
03.11.2016,3.9275
02.11.2016,3.8932
01.11.2016,3.7991
31.10.2016,3.7593
28.10.2016,3.783
27.10.2016,3.7556
26.10.2016,3.6849
25.10.2016,3.6215
24.10.2016,3.582
21.10.2016,3.6618
20.10.2016,3.7656
19.10.2016,3.7422
18.10.2016,3.6267
17.10.2016,3.624
14.10.2016,3.6178
13.10.2016,3.5812
12.10.2016,3.6854
11.10.2016,3.6771
10.10.2016,3.6835
07.10.2016,3.6278
06.10.2016,3.6386
05.10.2016,3.6002
04.10.2016,3.5935
03.10.2016,3.5538
30.09.2016,3.624
29.09.2016,3.6805
28.09.2016,3.6413
27.09.2016,3.6905
26.09.2016,3.5901
23.09.2016,3.4924
22.09.2016,3.4928
21.09.2016,3.4983
20.09.2016,3.4838
19.09.2016,3.5332
16.09.2016,3.6155
15.09.2016,3.5341
14.09.2016,3.5299
13.09.2016,3.5386
12.09.2016,3.5646
09.09.2016,3.5558
08.09.2016,3.5297
07.09.2016,3.5267
06.09.2016,3.4878
05.09.2016,3.4358
02.09.2016,3.5011
01.09.2016,3.5599
31.08.2016,3.5473
30.08.2016,3.5349
29.08.2016,3.5023
26.08.2016,3.5164
25.08.2016,3.4758
24.08.2016,3.4528
23.08.2016,3.4855
22.08.2016,3.534
19.08.2016,3.5001
18.08.2016,3.4888
17.08.2016,3.5683
16.08.2016,3.5644
15.08.2016,3.5202
12.08.2016,3.5728
11.08.2016,3.5713
10.08.2016,3.5836
09.08.2016,3.5825
08.08.2016,3.6116
05.08.2016,3.5713
04.08.2016,3.6111
03.08.2016,3.6007
02.08.2016,3.5926
01.08.2016,3.524
29.07.2016,3.4896
28.07.2016,3.4421
27.07.2016,3.363
26.07.2016,3.401
25.07.2016,3.4188
22.07.2016,3.4827
21.07.2016,3.4812
20.07.2016,3.4741
19.07.2016,3.4661
18.07.2016,3.4163
15.07.2016,3.3945
14.07.2016,3.4158
13.07.2016,3.377
12.07.2016,3.339
11.07.2016,3.3739
08.07.2016,3.3926
07.07.2016,3.3029
06.07.2016,3.222
05.07.2016,3.2134
04.07.2016,3.2361
01.07.2016,3.2695
30.06.2016,3.3024
29.06.2016,3.33
28.06.2016,3.3678
27.06.2016,3.3006
24.06.2016,3.3094
23.06.2016,3.296
22.06.2016,3.2637
21.06.2016,3.2511
20.06.2016,3.282
17.06.2016,3.2532
16.06.2016,3.249
15.06.2016,3.2591
14.06.2016,3.2722
13.06.2016,3.2565
10.06.2016,3.286
09.06.2016,3.2768
08.06.2016,3.2637
07.06.2016,3.2892
06.06.2016,3.2486
03.06.2016,3.2649
02.06.2016,3.2571
01.06.2016,3.2377
31.05.2016,3.1938
30.05.2016,3.166
27.05.2016,3.1749
26.05.2016,3.1456
25.05.2016,3.1271
24.05.2016,3.145
23.05.2016,3.1925
20.05.2016,3.1862
19.05.2016,3.2027
18.05.2016,3.2037
17.05.2016,3.2393
16.05.2016,3.2038
13.05.2016,3.2014
12.05.2016,3.2338
11.05.2016,3.2257
10.05.2016,3.2367
09.05.2016,3.2655
06.05.2016,3.2298
05.05.2016,3.2419
04.05.2016,3.2273
03.05.2016,3.2582
02.05.2016,3.2568
29.04.2016,3.2833
28.04.2016,3.1953
27.04.2016,3.193
26.04.2016,3.2143
25.04.2016,3.2735
22.04.2016,3.2458
21.04.2016,3.3138
20.04.2016,3.3426
19.04.2016,3.3024
18.04.2016,3.2622
15.04.2016,3.2731
14.04.2016,3.2589
13.04.2016,3.2071
12.04.2016,3.2208
11.04.2016,3.245
08.04.2016,3.2401
07.04.2016,3.2346
06.04.2016,3.2167
05.04.2016,3.2595
04.04.2016,3.2603
01.04.2016,3.2105
31.03.2016,3.2578
30.03.2016,3.2202
29.03.2016,3.2298
28.03.2016,3.2204
25.03.2016,3.2065
24.03.2016,3.1953
23.03.2016,3.2025
22.03.2016,3.178
21.03.2016,3.2051
18.03.2016,3.2022
17.03.2016,3.1888
16.03.2016,3.1697
15.03.2016,3.1433
14.03.2016,3.1511
11.03.2016,3.1246
10.03.2016,3.1151
09.03.2016,3.1409
08.03.2016,3.1701
07.03.2016,3.2065
04.03.2016,3.1893
03.03.2016,3.2367
02.03.2016,3.2359
01.03.2016,3.2425
29.02.2016,3.2337
26.02.2016,3.202
25.02.2016,3.1695
24.02.2016,3.2172
23.02.2016,3.3864
22.02.2016,3.3915
19.02.2016,3.4331
18.02.2016,3.4404
17.02.2016,3.42
16.02.2016,3.4193
15.02.2016,3.3835
12.02.2016,3.3525
11.02.2016,3.355
10.02.2016,3.3945
09.02.2016,3.3915
08.02.2016,3.4223
05.02.2016,3.3859
04.02.2016,3.399
03.02.2016,3.3842
02.02.2016,3.4718
01.02.2016,3.4755
29.01.2016,3.4215
28.01.2016,3.408
27.01.2016,3.383
26.01.2016,3.3755
25.01.2016,3.3785
22.01.2016,3.3388
21.01.2016,3.3355
20.01.2016,3.3705
19.01.2016,3.3695
18.01.2016,3.392
15.01.2016,3.365
14.01.2016,3.3546
13.01.2016,3.327
12.01.2016,3.2875
11.01.2016,3.271
08.01.2016,3.277
07.01.2016,3.2712
06.01.2016,3.2845
05.01.2016,3.2547
04.01.2016,3.2547
29.12.2017,3.2857
28.12.2017,3.2652
27.12.2017,3.2163
26.12.2017,3.1991
25.12.2017,3.2241
22.12.2017,3.1969
21.12.2017,3.1961
20.12.2017,3.1975
19.12.2017,3.1881
18.12.2017,3.2213
15.12.2017,3.2418
14.12.2017,3.2115
13.12.2017,3.2309
12.12.2017,3.1965
11.12.2017,3.169
08.12.2017,3.1633
07.12.2017,3.1702
06.12.2017,3.1702
05.12.2017,3.178
04.12.2017,3.141
01.12.2017,3.127
30.11.2017,3.1509
29.11.2017,3.1295
28.11.2017,3.124
27.11.2017,3.1176
24.11.2017,3.116
23.11.2017,3.1205
22.11.2017,3.1175
21.11.2017,3.1301
20.11.2017,3.1157
17.11.2017,3.1115
16.11.2017,3.085
15.11.2017,3.0575
14.11.2017,3.0892
13.11.2017,3.1048
10.11.2017,3.087
09.11.2017,3.0951
08.11.2017,3.064
07.11.2017,3.0595
06.11.2017,3.111
03.11.2017,3.109
02.11.2017,3.1091
01.11.2017,3.09
31.10.2017,3.1565
30.10.2017,3.1158
27.10.2017,3.1386
26.10.2017,3.1195
25.10.2017,3.1631
24.10.2017,3.1932
23.10.2017,3.1395
20.10.2017,3.153
19.10.2017,3.1685
18.10.2017,3.1037
17.10.2017,3.1185
16.10.2017,3.0918
13.10.2017,3.0726
12.10.2017,3.0884
11.10.2017,3.088
10.10.2017,3.1395
09.10.2017,3.1086
06.10.2017,3.1265
05.10.2017,3.1412
04.10.2017,3.1199
03.10.2017,3.1496
02.10.2017,3.1233
29.09.2017,3.1147
28.09.2017,3.0939
27.09.2017,3.1203
26.09.2017,3.1427
25.09.2017,3.1462
22.09.2017,3.132
21.09.2017,3.1372
20.09.2017,3.1258
19.09.2017,3.1444
18.09.2017,3.1448
15.09.2017,3.0985
14.09.2017,3.108
13.09.2017,3.1522
12.09.2017,3.1486
11.09.2017,3.1482
08.09.2017,3.128
07.09.2017,3.1471
06.09.2017,3.1723
05.09.2017,3.1835
04.09.2017,3.1766
01.09.2017,3.1765
31.08.2017,3.1517
30.08.2017,3.1652
29.08.2017,3.1885
28.08.2017,3.1774
25.08.2017,3.198
24.08.2017,3.1902
23.08.2017,3.1678
22.08.2017,3.1403
21.08.2017,3.1218
18.08.2017,3.1113
17.08.2017,3.0964
16.08.2017,3.138
15.08.2017,3.371
14.08.2017,3.2529
11.08.2017,3.2656
10.08.2017,3.2705
09.08.2017,3.2784
08.08.2017,3.2736
07.08.2017,3.2601
04.08.2017,3.2567
03.08.2017,3.2577
02.08.2017,3.2266
01.08.2017,3.2506
31.07.2017,3.2483
28.07.2017,3.2969
27.07.2017,3.2778
26.07.2017,3.2695
25.07.2017,3.2617
24.07.2017,3.2971
21.07.2017,3.3181
20.07.2017,3.3154
19.07.2017,3.2742
18.07.2017,3.275
17.07.2017,3.2933
14.07.2017,3.2828
13.07.2017,3.327
12.07.2017,3.3363
11.07.2017,3.3425
10.07.2017,3.343
07.07.2017,3.2963
06.07.2017,3.3135
05.07.2017,3.2805
04.07.2017,3.3043
03.07.2017,3.3072
30.06.2017,3.3015
29.06.2017,3.3093
28.06.2017,3.2889
27.06.2017,3.2962
26.06.2017,3.2813
23.06.2017,3.2557
22.06.2017,3.2548
21.06.2017,3.2079
20.06.2017,3.2138
19.06.2017,3.1799
16.06.2017,3.1833
15.06.2017,3.1545
14.06.2017,3.149
13.06.2017,3.1208
12.06.2017,3.1418
09.06.2017,3.147
08.06.2017,3.1726
07.06.2017,3.1387
06.06.2017,3.153
05.06.2017,3.1319
02.06.2017,3.1264
01.06.2017,3.1265
31.05.2017,3.1137
30.05.2017,3.1126
29.05.2017,3.1313
26.05.2017,3.1265
25.05.2017,3.1269
24.05.2017,3.1559
23.05.2017,3.1757
22.05.2017,3.1938
19.05.2017,3.189
18.05.2017,3.1695
17.05.2017,3.1524
16.05.2017,3.1751
15.05.2017,3.1465
12.05.2017,3.1645
11.05.2017,3.1611
10.05.2017,3.1414
09.05.2017,3.1481
08.05.2017,3.1603
05.05.2017,3.167
04.05.2017,3.1652
03.05.2017,3.1603
02.05.2017,3.1479
01.05.2017,3.1416
28.04.2017,3.1417
27.04.2017,3.1174
26.04.2017,3.1004
25.04.2017,3.0993
24.04.2017,3.0867
21.04.2017,3.1029
20.04.2017,3.1252
19.04.2017,3.1353
18.04.2017,3.119
17.04.2017,3.1085
14.04.2017,3.1368
13.04.2017,3.1351
12.04.2017,3.1325
11.04.2017,3.1377
10.04.2017,3.125
07.04.2017,3.1599
06.04.2017,3.1666
05.04.2017,3.1932
04.04.2017,3.1825
03.04.2017,3.1619
31.03.2017,3.1545
30.03.2017,3.1427
29.03.2017,3.1351
28.03.2017,3.1545
27.03.2017,3.1561
24.03.2017,3.1888
23.03.2017,3.1795
22.03.2017,3.1724
21.03.2017,3.1705
20.03.2017,3.1452
17.03.2017,3.1712
16.03.2017,3.158
15.03.2017,3.1711
14.03.2017,3.1671
13.03.2017,3.1926
10.03.2017,3.2378
09.03.2017,3.2435
08.03.2017,3.2332
07.03.2017,3.2906
06.03.2017,3.2363
03.03.2017,3.2891
02.03.2017,3.2727
01.03.2017,3.2677
28.02.2017,3.268
27.02.2017,3.3144
24.02.2017,3.2495
23.02.2017,3.2714
22.02.2017,3.2548
21.02.2017,3.2521
20.02.2017,3.2779
17.02.2017,3.2794
16.02.2017,3.3131
15.02.2017,3.3133
14.02.2017,3.274
13.02.2017,3.2574
10.02.2017,3.2574
09.02.2017,3.2588
08.02.2017,3.2243
07.02.2017,3.2219
06.02.2017,3.233
03.02.2017,3.2278
02.02.2017,3.2131
01.02.2017,3.2461
31.01.2017,3.2727
30.01.2017,3.2581
27.01.2017,3.2442
26.01.2017,3.2418
25.01.2017,3.2357
24.01.2017,3.2907
23.01.2017,3.2919
20.01.2017,3.3048
19.01.2017,3.3065
18.01.2017,3.31
17.01.2017,3.3419
16.01.2017,3.2947
13.01.2017,3.2923
12.01.2017,3.29
11.01.2017,3.2979
10.01.2017,3.3084
09.01.2017,3.337
06.01.2017,3.337
05.01.2017,3.3111
04.01.2017,3.315
03.01.2017,3.3125
02.01.2017,3.3125
31.12.2018,3.2279
30.12.2018,3.2312
28.12.2018,3.2346
27.12.2018,3.2557
26.12.2018,3.2692
25.12.2018,3.2502
24.12.2018,3.2379
23.12.2018,3.2258
21.12.2018,3.2516
20.12.2018,3.2462
19.12.2018,3.2515
18.12.2018,3.2528
17.12.2018,3.243
16.12.2018,3.2117
14.12.2018,3.2454
13.12.2018,3.2669
12.12.2018,3.2553
11.12.2018,3.2622
10.12.2018,3.2607
09.12.2018,3.2607
07.12.2018,3.2862
06.12.2018,3.2811
05.12.2018,3.2862
04.12.2018,3.3117
03.12.2018,3.2725
02.12.2018,3.3159
30.11.2018,3.3123
29.11.2018,3.3119
28.11.2018,3.3288
27.11.2018,3.3205
26.11.2018,3.306
25.11.2018,3.3051
23.11.2018,3.3112
22.11.2018,3.3413
21.11.2018,3.3297
20.11.2018,3.3449
19.11.2018,3.3697
18.11.2018,3.42
16.11.2018,3.4088
15.11.2018,3.3746
14.11.2018,3.4133
13.11.2018,3.4223
12.11.2018,3.4194
11.11.2018,3.408
09.11.2018,3.3805
08.11.2018,3.3885
07.11.2018,3.413
06.11.2018,3.4527
05.11.2018,3.4714
04.11.2018,3.485
02.11.2018,3.4755
01.11.2018,3.4568
31.10.2018,3.5072
30.10.2018,3.5076
29.10.2018,3.5518
28.10.2018,3.5282
26.10.2018,3.5303
25.10.2018,3.5534
24.10.2018,3.5636
23.10.2018,3.5924
22.10.2018,3.5502
21.10.2018,3.5999
19.10.2018,3.6231
18.10.2018,3.654
17.10.2018,3.6761
16.10.2018,3.6966
15.10.2018,3.737
14.10.2018,3.6772
12.10.2018,3.6448
11.10.2018,3.6288
10.10.2018,3.6496
09.10.2018,3.6524
08.10.2018,3.6277
07.10.2018,3.7352
05.10.2018,3.7254
04.10.2018,3.7241
03.10.2018,3.7235
02.10.2018,3.7633
01.10.2018,3.7631
30.09.2018,3.7468
28.09.2018,3.8068
27.09.2018,3.8488
26.09.2018,3.9078
25.09.2018,3.7094
24.09.2018,3.7064
23.09.2018,3.7097
21.09.2018,3.7185
20.09.2018,3.7201
19.09.2018,3.806
18.09.2018,3.7296
17.09.2018,3.7301
16.09.2018,3.747
14.09.2018,3.7471
13.09.2018,3.7715
12.09.2018,3.7691
11.09.2018,3.786
10.09.2018,3.7878
09.09.2018,3.7767
07.09.2018,3.8016
06.09.2018,3.8628
05.09.2018,3.8624
04.09.2018,3.8771
03.09.2018,3.8771
02.09.2018,3.9129
31.08.2018,3.8975
30.08.2018,3.9137
29.08.2018,3.9327
28.08.2018,3.8628
27.08.2018,3.8674
26.08.2018,3.8727
24.08.2018,3.8152
23.08.2018,3.8773
22.08.2018,3.8822
21.08.2018,3.8518
20.08.2018,3.8509
19.08.2018,3.8605
17.08.2018,3.8388
16.08.2018,3.8512
15.08.2018,3.8295
14.08.2018,3.7681
13.08.2018,3.7722
12.08.2018,3.7826
10.08.2018,3.7481
09.08.2018,3.6886
08.08.2018,3.7462
07.08.2018,3.7114
06.08.2018,3.7126
05.08.2018,3.7307
03.08.2018,3.7563
02.08.2018,3.7499
01.08.2018,3.7503
31.07.2018,3.708
30.07.2018,3.7038
29.07.2018,3.7363
27.07.2018,3.7515
26.07.2018,3.7721
25.07.2018,3.8015
24.07.2018,3.8596
23.07.2018,3.8669
22.07.2018,3.884
20.07.2018,3.8673
19.07.2018,3.9055
18.07.2018,3.9072
17.07.2018,3.9116
16.07.2018,3.9123
15.07.2018,3.97
13.07.2018,4.0477
12.07.2018,4.0425
11.07.2018,4.1155
10.07.2018,4.102
09.07.2018,4.1053
08.07.2018,4.0775
06.07.2018,4.1342
05.07.2018,4.1074
04.07.2018,4.1495
03.07.2018,4.0556
02.07.2018,4.0552
01.07.2018,4.159
29.06.2018,4.1602
28.06.2018,4.1466
27.06.2018,4.059
26.06.2018,4.0597
25.06.2018,4.0453
24.06.2018,4.0867
22.06.2018,4.1535
21.06.2018,4.1579
20.06.2018,4.2077
19.06.2018,4.1742
18.06.2018,4.1736
17.06.2018,4.1324
15.06.2018,4.1604
14.06.2018,4.1315
13.06.2018,4.0771
12.06.2018,4.0516
11.06.2018,4.0515
10.06.2018,4.0928
08.06.2018,4.0757
07.06.2018,4.0322
06.06.2018,4.0123
05.06.2018,4.0491
04.06.2018,4.0542
03.06.2018,4.0181
01.06.2018,3.9414
31.05.2018,3.9015
30.05.2018,3.8745
29.05.2018,3.8413
28.05.2018,3.8373
27.05.2018,3.779
25.05.2018,3.7155
24.05.2018,3.7555
23.05.2018,3.7812
22.05.2018,3.783
21.05.2018,3.7831
18.05.2018,3.7357
17.05.2018,3.7252
16.05.2018,3.6875
15.05.2018,3.7216
14.05.2018,3.7149
11.05.2018,3.7124
10.05.2018,3.686
09.05.2018,3.6942
08.05.2018,3.735
07.05.2018,3.7058
04.05.2018,3.6429
03.05.2018,3.6431
02.05.2018,3.7187
01.05.2018,3.6974
30.04.2018,3.722
27.04.2018,3.7012
26.04.2018,3.6968
25.04.2018,3.7019
24.04.2018,3.7262
23.04.2018,3.7615
20.04.2018,3.7318
19.04.2018,3.7605
18.04.2018,3.7335
17.04.2018,3.7308
16.04.2018,3.7675
13.04.2018,3.8032
12.04.2018,3.7841
11.04.2018,3.7843
10.04.2018,3.7435
09.04.2018,3.744
06.04.2018,3.757
05.04.2018,3.7572
04.04.2018,3.7976
03.04.2018,3.8045
02.04.2018,3.8283
30.03.2018,3.8272
29.03.2018,3.941
28.03.2018,3.8752
27.03.2018,3.851
26.03.2018,3.8527
23.03.2018,3.8669
22.03.2018,3.8667
21.03.2018,3.8423
20.03.2018,3.8525
19.03.2018,3.8686
16.03.2018,3.8793
15.03.2018,3.9075
14.03.2018,3.9073
13.03.2018,3.9181
12.03.2018,3.904
09.03.2018,3.8555
08.03.2018,3.8911
07.03.2018,3.9171
06.03.2018,3.917
05.03.2018,3.8995
02.03.2018,3.9124
01.03.2018,3.8977
28.02.2018,3.8422
27.02.2018,3.904
26.02.2018,3.9053
23.02.2018,3.904
22.02.2018,3.904
21.02.2018,3.922
20.02.2018,3.8735
19.02.2018,3.8813
16.02.2018,3.8747
15.02.2018,3.8813
